;Bairro;totalHab;mulheres;homens;menos24;25a65;mais66;menos1SM;1a2SM;2a4SM;4a10SM;10MaisSM;semInstru;PrimGrau;SegGrau;TercGrau;Mestrado/doutorado;TotalDeCasos;CasosPorMil;TaxaNormalizada
0;CENTRO;41919;51;49;25;62;13;4;38;43;11;4;10;9;49;25;7;3790;90.41246212934469;0.14685591571673443
1;SAO FRANCISCO;5827;54;46;19;63;18;2;23;44;29;2;10;13;38;31;8;507;87.00875235970481;0.14132730933568752
2;CENTRO CIVICO;4799;59;41;18;57;25;3;17;33;42;5;15;6;36;26;17;163;33.96540946030423;0.05516962143836891
3;ALTO DA GLORIA;5508;54;46;18;57;25;0;53;39;6;2;14;7;38;36;5;135;24.509803921568626;0.03981099080998623
4;ALTO DA RUA XV;8381;58;42;18;63;19;15;21;27;24;13;8;9;44;18;21;238;28.397565922920894;0.04612583762812198
5;JARDIM BOTANICO;6191;57;43;19;56;25;0;18;36;18;28;18;10;55;17;0;764;123.40494265869812;0.2004452199541662
6;REBOUCAS;14162;56;44;26;55;19;6;24;44;23;3;17;11;43;20;9;1988;140.37565315633384;0.22801054858030695
7;AGUA VERDE;52976;56;44;24;58;18;8;24;27;31;10;14;10;44;16;16;1329;25.086831772878288;0.040748250469798505
8;BATEL;9983;57;43;15;58;27;2;11;13;52;22;6;5;31;48;10;335;33.557046979865774;0.05450632298816907
9;BIGORRILHO;29539;53;47;22;55;23;2;16;31;31;20;6;13;42;31;8;887;30.028098446122076;0.04877429273222105
10;MERCES;11731;54;46;19;62;19;5;20;39;34;2;18;12;41;23;6;520;44.32699684596369;0.07199982789401313
11;BOM RETIRO;4683;54;46;18;58;24;12;28;35;18;7;15;13;42;20;10;208;44.41597266709375;0.07214435029038377
12;AHU;11862;52;48;18;59;23;13;30;23;30;4;14;6;41;27;12;400;33.72112628561794;0.054772835105292135
13;JUVEVE;11880;57;43;18;54;28;0;23;23;36;18;8;8;48;19;17;151;12.71043771043771;0.020645416850350432
14;CABRAL;14392;56;44;23;57;20;6;39;39;6;10;15;5;35;28;17;145;10.075041689827684;0.016364773598657487
15;HUGO LANGE;3617;51;49;17;54;29;11;33;22;28;6;10;10;30;35;15;59;16.31186065800387;0.026495166457782375
16;JARDIM SOCIAL;5312;54;46;16;54;30;0;0;30;20;50;12;12;30;37;9;138;25.978915662650603;0.04219725200612697
17;TARUMA;9094;52;48;26;60;14;6;94;0;0;0;17;17;29;28;9;230;25.291400923685945;0.041080529773577165
18;CAPAO DA IMBUIA;19973;52;48;24;60;16;28;32;23;13;4;22;21;38;16;3;1224;61.2827316877785;0.09954083173574647
19;CAJURU;102584;53;47;27;59;14;25;49;21;4;1;36;18;36;8;2;13575;132.33057786789362;0.2149430259106583
20;JARDIM DAS AMERICAS;16653;57;43;29;54;17;2;52;34;8;4;22;17;33;19;9;549;32.96703296703297;0.05354797005650896
21;GUABIROTUBA;12240;53;47;28;52;20;21;35;31;11;2;25;17;37;16;5;657;53.67647058823529;0.08718606987386984
22;PRADO VELHO;5074;51;49;38;52;10;38;47;9;6;0;51;19;23;7;0;2330;459.2037839968467;0.7458793910840622
23;PAROLIN;11127;57;43;29;55;16;39;24;11;22;4;34;15;34;10;7;2020;181.5403972319583;0.29487396590238385
24;GUAIRA;15538;51;49;21;61;18;25;35;22;15;3;26;14;43;9;8;1839;118.35500064358347;0.19224265759185472
25;PORTAO;44579;52;48;22;57;21;12;24;35;27;2;16;19;43;16;6;1871;41.97043450952242;0.06817209096802881
26;VILA IZABEL;12267;56;44;21;57;22;3;41;18;21;17;15;4;37;28;16;394;32.11869242683623;0.05217002033656891
27;SEMINARIO;6310;58;42;17;54;29;1;6;18;59;16;16;3;57;22;2;265;41.996830427892235;0.06821496555270541
28;CAMPINA DO SIQUEIRA;7543;52;48;20;63;17;18;24;34;21;3;18;14;45;17;6;461;61.1162667373724;0.09927044464362575
29;VISTA ALEGRE;12460;53;47;25;62;13;11;37;31;20;1;21;15;37;20;7;928;74.47833065810595;0.12097429040481723
30;PILARZINHO;29050;51;49;31;56;13;18;50;24;8;0;26;22;38;11;3;3251;111.9104991394148;0.18177492839343276
31;SAO LOURENCO;6992;55;45;22;57;21;21;33;26;19;1;17;12;51;15;5;356;50.915331807780326;0.08270118411282724
32;BOA VISTA;32703;53;47;26;58;16;17;32;34;14;3;20;14;44;16;6;2220;67.88368039629391;0.1102626763173199
33;BACACHERI;24359;56;44;23;54;23;10;18;48;17;7;16;12;42;18;12;1471;60.38835748593949;0.09808811007203833
34;BAIRRO ALTO;50156;53;47;32;56;12;14;48;29;7;2;30;18;43;9;0;7690;153.3216364941383;0.2490385594667597
35;HAUER;12782;55;45;27;55;18;30;45;19;4;2;33;22;36;8;1;1049;82.0685338757628;0.1333029696350151
36;FANNY;8960;51;49;29;56;15;13;42;25;20;0;27;17;41;11;4;715;79.79910714285714;0.1296167660612632
37;LINDOIA;8823;53;47;33;57;10;15;46;31;6;2;28;19;39;10;4;1092;123.76742604556273;0.20103399752372236
38;NOVO MUNDO;45122;53;47;24;60;16;18;44;28;9;1;29;19;36;9;7;5454;120.87230175967377;0.1963314806570792
39;FAZENDINHA;30016;54;46;30;57;13;23;39;29;9;0;33;18;38;7;4;3293;109.70815565031982;0.17819768735611718
40;SANTA QUITERIA;12427;55;45;19;58;23;21;42;26;6;5;19;18;44;11;8;1108;89.16069847911805;0.1448226905087762
41;CAMPO COMPRIDO;35957;58;42;28;59;13;22;42;28;8;0;34;18;34;10;4;2010;55.90010290068693;0.09079789010054651
42;MOSSUNGUE;13677;51;49;26;57;17;9;45;29;14;3;28;12;38;19;3;510;37.288879140162315;0.06056789477035852
43;SANTO INACIO;6948;53;47;25;49;26;23;39;24;13;1;22;19;37;16;6;577;83.0454807138745;0.1348898130760466
44;CASCATINHA;2259;55;45;22;57;21;16;31;33;17;3;33;9;55;3;0;248;109.78308986277113;0.1783194021300419
45;SAO JOAO;3553;53;47;26;55;19;6;43;38;11;2;33;13;41;11;2;617;173.65606529693218;0.2820675368010891
46;TABOAO;4120;55;45;34;55;11;20;48;24;7;1;38;16;33;9;4;633;153.64077669902912;0.24955693520753114
47;ABRANCHES;15201;52;48;31;59;10;18;45;25;9;3;36;18;36;6;4;2070;136.17525162818237;0.22118788499757894
48;CACHOEIRA;10883;52;48;33;54;13;37;43;13;5;2;45;16;32;7;0;2748;252.50390517320594;0.41013917045211434
49;BARREIRINHA;19009;52;48;26;56;18;38;35;19;8;0;23;22;42;9;4;2507;131.8848966279131;0.21421911103129715
50;SANTA CANDIDA;37720;52;48;30;59;11;20;41;25;13;1;26;21;38;11;4;6380;169.14103923647932;0.27473383223230796
51;TINGUI;13070;50;50;23;65;12;14;36;36;14;0;22;11;49;14;4;1829;139.93879112471308;0.22730095863900263
52;ATUBA;19221;48;52;30;62;8;22;37;31;7;3;22;24;44;8;2;3474;180.73981582643984;0.293573590792092
53;BOQUEIRAO;77837;52;48;31;58;11;23;44;28;5;0;31;19;35;12;3;8337;107.10844457006307;0.17397500673998859
54;XAXIM;59660;53;47;27;60;13;24;43;26;7;0;26;21;42;9;2;3704;62.08514917867918;0.10084418917827206
55;CAPAO RASO;37745;54;46;29;57;14;20;38;28;13;1;32;19;35;9;5;3385;89.68075241753874;0.14566740810135323
56;ORLEANS;8945;52;48;28;58;14;7;59;25;9;0;39;10;38;13;0;652;72.88988261598658;0.11839419263621348
57;SAO BRAZ;23997;57;43;25;57;18;20;47;21;11;1;34;18;38;7;3;3037;126.55748635246073;0.2055658601854011
58;BUTIATUVINHA;14982;57;43;34;54;12;37;32;28;3;0;37;27;27;3;6;1742;116.27286076625283;0.18886066188977688
59;LAMENHA PEQUENA;1408;50;50;32;59;9;31;51;15;3;0;34;31;29;5;1;94;66.76136363636363;0.10843971019492839
60;SANTA FELICIDADE;37901;51;49;25;59;16;15;43;31;10;1;31;18;36;10;5;4158;109.70686789266774;0.17819559566626866
61;ALTO BOQUEIRAO;56862;53;47;32;56;12;26;44;22;7;1;36;18;39;7;0;8200;144.20878618409483;0.23423666218896616
62;SITIO CERCADO;128569;52;48;35;56;9;22;57;20;1;0;41;19;33;5;2;16562;128.8179887842326;0.20923756812011973
63;PINHEIRINHO;51109;54;46;32;55;13;29;40;25;5;1;41;21;30;7;1;7251;141.8732512864662;0.2304430798884536
64;SAO MIGUEL;4636;52;48;41;52;7;23;66;11;0;0;59;16;22;2;1;275;59.318377911993096;0.09635015463504001
65;AUGUSTA;9564;49;51;36;56;8;39;21;32;7;1;34;27;32;4;3;1032;107.90464240903387;0.17526826167387663
66;RIVIERA;376;49;51;35;59;6;38;35;23;3;1;48;21;22;9;0;26;69.14893617021276;0.11231781662562072
67;CAXIMBA;2568;52;48;44;49;7;27;48;22;3;0;60;23;16;1;0;1581;615.6542056074767;1.0
68;CAMPO DE SANTANA;45876;51;49;39;53;8;34;40;23;3;0;54;23;21;2;0;5147;112.19373964600227;0.18223499266978735
69;GANCHINHO;15009;49;51;42;53;5;22;49;25;4;0;55;18;26;1;0;2311;153.9742820974082;0.2500986441658091
70;UMBARA;22843;50;50;39;50;11;22;46;28;3;1;54;16;25;4;1;3626;158.73571772534257;0.2578325889428714
71;TATUQUARA;69134;51;49;42;52;6;20;59;19;2;0;54;16;26;3;1;7444;107.67495009691325;0.17489517510997674
72;CIDADE INDUSTRIAL;188107;52;48;35;56;9;22;52;22;4;0;41;20;32;6;1;29174;155.09258028675168;0.25191508297051124
73;CRISTO REI;14261;55;45;25;60;15;2;25;47;23;3;11;6;46;16;21;495;34.71004838370381;0.056379129822486634
74;UBERABA;83711;53;47;33;54;13;23;45;23;7;2;37;22;30;7;4;9545;114.02324664619942;0.18520663971375084
