;Bairro;totalHab;mulheres;homens;menos24;25a65;mais66;menos1SM;1a2SM;2a4SM;4a10SM;10MaisSM;semInstru;PrimGrau;SegGrau;TercGrau;Mestrado/doutorado
0;CENTRO;41919;51;49;25;62;13;4;38;43;11;4;10;9;49;25;7
1;SAO FRANCISCO;5827;54;46;19;63;18;2;23;44;29;2;10;13;38;31;8
2;CENTRO CIVICO;4799;59;41;18;57;25;3;17;33;42;5;15;6;36;26;17
3;ALTO DA GLORIA;5508;54;46;18;57;25;0;53;39;6;2;14;7;38;36;5
4;ALTO DA RUA XV;8381;58;42;18;63;19;15;21;27;24;13;8;9;44;18;21
5;JARDIM BOTANICO;6191;57;43;19;56;25;0;18;36;18;28;18;10;55;17;0
6;REBOUCAS;14162;56;44;26;55;19;6;24;44;23;3;17;11;43;20;9
7;AGUA VERDE;52976;56;44;24;58;18;8;24;27;31;10;14;10;44;16;16
8;BATEL;9983;57;43;15;58;27;2;11;13;52;22;6;5;31;48;10
9;BIGORRILHO;29539;53;47;22;55;23;2;16;31;31;20;6;13;42;31;8
10;MERCES;11731;54;46;19;62;19;5;20;39;34;2;18;12;41;23;6
11;BOM RETIRO;4683;54;46;18;58;24;12;28;35;18;7;15;13;42;20;10
12;AHU;11862;52;48;18;59;23;13;30;23;30;4;14;6;41;27;12
13;JUVEVE;11880;57;43;18;54;28;0;23;23;36;18;8;8;48;19;17
14;CABRAL;14392;56;44;23;57;20;6;39;39;6;10;15;5;35;28;17
15;HUGO LANGE;3617;51;49;17;54;29;11;33;22;28;6;10;10;30;35;15
16;JARDIM SOCIAL;5312;54;46;16;54;30;0;0;30;20;50;12;12;30;37;9
17;TARUMA;9094;52;48;26;60;14;6;94;0;0;0;17;17;29;28;9
18;CAPAO DA IMBUIA;19973;52;48;24;60;16;28;32;23;13;4;22;21;38;16;3
19;CAJURU;102584;53;47;27;59;14;25;49;21;4;1;36;18;36;8;2
20;JARDIM DAS AMERICAS;16653;57;43;29;54;17;2;52;34;8;4;22;17;33;19;9
21;GUABIROTUBA;12240;53;47;28;52;20;21;35;31;11;2;25;17;37;16;5
22;PRADO VELHO;5074;51;49;38;52;10;38;47;9;6;0;51;19;23;7;0
23;PAROLIN;11127;57;43;29;55;16;39;24;11;22;4;34;15;34;10;7
24;GUAIRA;15538;51;49;21;61;18;25;35;22;15;3;26;14;43;9;8
25;PORTAO;44579;52;48;22;57;21;12;24;35;27;2;16;19;43;16;6
26;VILA IZABEL;12267;56;44;21;57;22;3;41;18;21;17;15;4;37;28;16
27;SEMINARIO;6310;58;42;17;54;29;1;6;18;59;16;16;3;57;22;2
28;CAMPINA DO SIQUEIRA;7543;52;48;20;63;17;18;24;34;21;3;18;14;45;17;6
29;VISTA ALEGRE;12460;53;47;25;62;13;11;37;31;20;1;21;15;37;20;7
30;PILARZINHO;29050;51;49;31;56;13;18;50;24;8;0;26;22;38;11;3
31;SAO LOURENCO;6992;55;45;22;57;21;21;33;26;19;1;17;12;51;15;5
32;BOA VISTA;32703;53;47;26;58;16;17;32;34;14;3;20;14;44;16;6
33;BACACHERI;24359;56;44;23;54;23;10;18;48;17;7;16;12;42;18;12
34;BAIRRO ALTO;50156;53;47;32;56;12;14;48;29;7;2;30;18;43;9;0
35;HAUER;12782;55;45;27;55;18;30;45;19;4;2;33;22;36;8;1
36;FANNY;8960;51;49;29;56;15;13;42;25;20;0;27;17;41;11;4
37;LINDOIA;8823;53;47;33;57;10;15;46;31;6;2;28;19;39;10;4
38;NOVO MUNDO;45122;53;47;24;60;16;18;44;28;9;1;29;19;36;9;7
39;FAZENDINHA;30016;54;46;30;57;13;23;39;29;9;0;33;18;38;7;4
40;SANTA QUITERIA;12427;55;45;19;58;23;21;42;26;6;5;19;18;44;11;8
41;CAMPO COMPRIDO;35957;58;42;28;59;13;22;42;28;8;0;34;18;34;10;4
42;MOSSUNGUE;13677;51;49;26;57;17;9;45;29;14;3;28;12;38;19;3
43;SANTO INACIO;6948;53;47;25;49;26;23;39;24;13;1;22;19;37;16;6
44;CASCATINHA;2259;55;45;22;57;21;16;31;33;17;3;33;9;55;3;0
45;SAO JOAO;3553;53;47;26;55;19;6;43;38;11;2;33;13;41;11;2
46;TABOAO;4120;55;45;34;55;11;20;48;24;7;1;38;16;33;9;4
47;ABRANCHES;15201;52;48;31;59;10;18;45;25;9;3;36;18;36;6;4
48;CACHOEIRA;10883;52;48;33;54;13;37;43;13;5;2;45;16;32;7;0
49;BARREIRINHA;19009;52;48;26;56;18;38;35;19;8;0;23;22;42;9;4
50;SANTA CANDIDA;37720;52;48;30;59;11;20;41;25;13;1;26;21;38;11;4
51;TINGUI;13070;50;50;23;65;12;14;36;36;14;0;22;11;49;14;4
52;ATUBA;19221;48;52;30;62;8;22;37;31;7;3;22;24;44;8;2
53;BOQUEIRAO;77837;52;48;31;58;11;23;44;28;5;0;31;19;35;12;3
54;XAXIM;59660;53;47;27;60;13;24;43;26;7;0;26;21;42;9;2
55;CAPAO RASO;37745;54;46;29;57;14;20;38;28;13;1;32;19;35;9;5
56;ORLEANS;8945;52;48;28;58;14;7;59;25;9;0;39;10;38;13;0
57;SAO BRAZ;23997;57;43;25;57;18;20;47;21;11;1;34;18;38;7;3
58;BUTIATUVINHA;14982;57;43;34;54;12;37;32;28;3;0;37;27;27;3;6
59;LAMENHA PEQUENA;1408;50;50;32;59;9;31;51;15;3;0;34;31;29;5;1
60;SANTA FELICIDADE;37901;51;49;25;59;16;15;43;31;10;1;31;18;36;10;5
61;ALTO BOQUEIRAO;56862;53;47;32;56;12;26;44;22;7;1;36;18;39;7;0
62;SITIO CERCADO;128569;52;48;35;56;9;22;57;20;1;0;41;19;33;5;2
63;PINHEIRINHO;51109;54;46;32;55;13;29;40;25;5;1;41;21;30;7;1
64;SAO MIGUEL;4636;52;48;41;52;7;23;66;11;0;0;59;16;22;2;1
65;AUGUSTA;9564;49;51;36;56;8;39;21;32;7;1;34;27;32;4;3
66;RIVIERA;376;49;51;35;59;6;38;35;23;3;1;48;21;22;9;0
67;CAXIMBA;2568;52;48;44;49;7;27;48;22;3;0;60;23;16;1;0
68;CAMPO DE SANTANA;45876;51;49;39;53;8;34;40;23;3;0;54;23;21;2;0
69;GANCHINHO;15009;49;51;42;53;5;22;49;25;4;0;55;18;26;1;0
70;UMBARA;22843;50;50;39;50;11;22;46;28;3;1;54;16;25;4;1
71;TATUQUARA;69134;51;49;42;52;6;20;59;19;2;0;54;16;26;3;1
72;CIDADE INDUSTRIAL;188107;52;48;35;56;9;22;52;22;4;0;41;20;32;6;1
73;CRISTO REI;14261;55;45;25;60;15;2;25;47;23;3;11;6;46;16;21
74;UBERABA;83711;53;47;33;54;13;23;45;23;7;2;37;22;30;7;4
